16
0 1 2 3 4 5 6 7 8 9 10 11 12 13 14 15
5
m M c C x
0
1
15
0 C 1
0 x 2
0 c 3
1 C 0
1 c 4
2 x 0
2 m 4
3 c 0
4 c 1
4 m 2
4 C 5
5 C 4
5 c 6
6 c 5
6 M 7
7 M 6
7 x 8
8 x 7
8 M 9
9 c 10
9 M 8
10 c 9
10 C 11
11 C 10
11 c 12
11 m 13
12 c 11
12 C 15
13 m 11
13 x 15
15 c 14
14 c 15
